{
  "message": "Spontaneous spellbooks handled domain spells and slots in manner that did not follow clear logic. Domain spells and slots are now explicitly extra spells known for spontaneous and are tracked properly.",
  "type": "Bug Fixes",
  "issue": "1432"
}
